…
- dai: dias após a avaliação
- species: nome da espécie do fungo
- spike: número da espiga inoculada
- above: número de espiguetas acima do ponto de inoculação



```r
library(readxl)
data1 <- read_excel("data_audpc.xlsx")
data1
```

```
## # A tibble: 403 x 4
##      dai             species spike above
##    <dbl>               <chr> <dbl> <dbl>
##  1     4 F. austroamericanum     1     1
##  2     4 F. austroamericanum     2     2
##  3     4 F. austroamericanum     3     2
##  4     4 F. austroamericanum     4     2
##  5     7 F. austroamericanum     1     4
##  6     7 F. austroamericanum     2     4
##  7     7 F. austroamericanum     3     3
##  8     7 F. austroamericanum     4     3
##  9    11 F. austroamericanum     1     4
## 10    11 F. austroamericanum     2     5
## # ... with 393 more rows
```
…
# pipe para deixar nosso código mais enxuto
audpc1 <- data1 %>% 
# agrupa por espécie e espiga 
  group_by(spike, species) %>% 
# roda a função audpc para número de espigas no y e dia no x
  do(tidy(audpc(.$above, .$dai))) 
# renomeia a últuma coluna para audpc
names(audpc1)[4] <- "audpc"

audpc1
```

```
## # A tibble: 22 x 4
## # Groups:   spike, species [22]
##    spike             species      names audpc
##    <dbl>               <chr>      <chr> <dbl>
##  1     1 F. austroamericanum evaluation  59.5
##  2     1      F. cortaderiae evaluation  50.0
##  3     1      F. graminearum evaluation 103.0
##  4     1      F. meridionale evaluation  21.0
##  5     2 F. austroamericanum evaluation  72.0
##  6     2      F. cortaderiae evaluation  72.0
##  7     2      F. graminearum evaluation  61.5
##  8     2      F. meridionale evaluation  39.0
##  9     3 F. austroamericanum evaluation  46.5
## 10     3      F. cortaderiae evaluation  17.5
## # ... with 12 more rows
```
…
